…
> 
> ## Find Best Tuning Parameters
> bestTune <- CV_results %>%
+   select_best("roc_auc")
> 
> ## Finalize the Workflow & fit it
> final_knn_wf <-
+   knn_wf %>%
+   finalize_workflow(bestTune) %>%
+   fit(data=amazonTrain)
> 
> ## Predict
> final_knn_wf %>%
+   predict(new_data = amazonTrain, type="prob")
# A tibble: 32,769 × 2
   .pred_0 .pred_1
     <dbl>   <dbl>
 1   0       1    
 2   0       1    
 3   0       1    
 4   0       1    
 5   0       1    
 6   0.470   0.530
 7   0.154   0.846
 8   0       1    
 9   0       1    
10   0.192   0.808
# ℹ 32,759 more rows
…
