…
# A tibble: 1 × 3
       penalty mixture .config             
         <dbl>   <dbl> <chr>               
1 0.0000000001       0 Preprocessor1_Model1
> 
> ## Finalize the Workflow & fit it
> final_wf <-
+   amazon_workflow %>%
+   finalize_workflow(bestTune) %>%
+   fit(data=amazonTrain)
> 
> ## Predict
> final_wf %>%
+   predict(new_data = amazonTrain, type="class")
# A tibble: 32,769 × 1
   .pred_class
   <fct>      
 1 1          
 2 1          
 3 1          
 4 1          
 5 1          
 6 1          
 7 1          
 8 1          
 9 1          
10 1          
# ℹ 32,759 more rows
…
